%YAML 1.1
%TAG !u! tag:unity3d.com,2011:
--- !u!78 &1
TagManager:
  serializedVersion: 2
  tags: []
  layers:
  - Default
  - TransparentFX
  - Ignore Raycast
  - 
  - Water
  - UI
  - 
  - 
  - BG
  - Hat
  - New Layer
  - ball
  - 
  - 
  - 
  - 
  - 
  - 
  - 
  - 
  - 
  - 
  - 
  - 
  - 
  - 
  - 
  - 
  - 
  - 
  - 
  - 
  m_SortingLayers:
  - name: Default
    uniqueID: 0
    locked: 0
  - name: BG
    uniqueID: 3398214461
    locked: 0
  - name: 1
    uniqueID: 3145038261
    locked: 0
  - name: 2
    uniqueID: 564431819
    locked: 0
  - name: 3
    uniqueID: 4191480865
    locked: 0
  - name: 4
    uniqueID: 795029259
    locked: 0
  - name: 5
    uniqueID: 3493130517
    locked: 0
  - name: New Layer
    uniqueID: 887273941
    locked: 0
  - name: Hat
    uniqueID: 3382048979
    locked: 0
